/data2/home/eugenerodse/ROBMS/bert/cctv/baseline/model/DeepMAR.py:42: UserWarning: nn.init.normal is now deprecated in favor of nn.init.normal_.
  init.normal(self.classifier.weight, std=0.001)
/data2/home/eugenerodse/ROBMS/bert/cctv/baseline/model/DeepMAR.py:43: UserWarning: nn.init.constant is now deprecated in favor of nn.init.constant_.
  init.constant(self.classifier.bias, 0)
train_age_peta.py:337: UserWarning: volatile was removed and now has no effect. Use `with torch.no_grad():` instead.
  imgs_var = Variable(imgs, volatile=True).cuda()
train_age_peta.py:338: UserWarning: volatile was removed and now has no effect. Use `with torch.no_grad():` instead.
  targets_var = Variable(targets, volatile=True).cuda()
/data2/home/eugenerodse/ROBMS/bert/cctv/baseline/utils/evaluate.py:22: UserWarning: volatile was removed and now has no effect. Use `with torch.no_grad():` instead.
  imgs_var = Variable(imgs, volatile=True).cuda()
/data2/home/eugenerodse/ROBMS/bert/cctv/baseline/utils/evaluate.py:69: RuntimeWarning: invalid value encountered in divide
  label_pos_acc = 1.0*pt_pos/gt_pos
/data2/home/eugenerodse/ROBMS/bert/cctv/baseline/utils/evaluate.py:70: RuntimeWarning: invalid value encountered in divide
  label_neg_acc = 1.0*pt_neg/gt_neg
