baseline/model/DeepMAR.py:42: UserWarning: nn.init.normal is now deprecated in favor of nn.init.normal_.
  init.normal(self.classifier.weight, std=0.001)
baseline/model/DeepMAR.py:43: UserWarning: nn.init.constant is now deprecated in favor of nn.init.constant_.
  init.constant(self.classifier.bias, 0)
