Downloading: "https://download.pytorch.org/models/resnet50-19c8e357.pth" to /home/eugenerodse/.torch/models/resnet50-19c8e357.pth
  0%|          | 0/102502400 [00:00<?, ?it/s]  6%|6         | 6627328/102502400 [00:00<00:01, 66264653.90it/s] 16%|#5        | 16097280/102502400 [00:00<00:01, 72815085.35it/s] 25%|##5       | 25714688/102502400 [00:00<00:00, 78522872.96it/s] 33%|###3      | 34013184/102502400 [00:00<00:00, 79802460.51it/s] 43%|####2     | 43646976/102502400 [00:00<00:00, 84121510.25it/s] 52%|#####2    | 53633024/102502400 [00:00<00:00, 88293370.27it/s] 62%|######1   | 63422464/102502400 [00:00<00:00, 90963861.29it/s] 70%|#######   | 72130560/102502400 [00:00<00:00, 79180174.77it/s] 78%|#######8  | 80052224/102502400 [00:00<00:00, 78885642.68it/s] 87%|########6 | 89022464/102502400 [00:01<00:00, 81844256.17it/s] 96%|#########6| 98508800/102502400 [00:01<00:00, 85344344.09it/s]100%|##########| 102502400/102502400 [00:01<00:00, 84497996.04it/s]
baseline/model/DeepMAR.py:42: UserWarning: nn.init.normal is now deprecated in favor of nn.init.normal_.
  init.normal(self.classifier.weight, std=0.001)
baseline/model/DeepMAR.py:43: UserWarning: nn.init.constant is now deprecated in favor of nn.init.constant_.
  init.constant(self.classifier.bias, 0)
